…
julia> [ (alter = a, N= population(popdat, jahr=2021, alter=a, monat=12, geschlecht=""))
         for a in DeutschlandDaten.Altersgruppen_Monate ]  |> DataFrame

#### Deutschland gesamt
Zur Nutzung sind das manuelle Herunterladen von Daten nötig.
```julia
julia> DeutschlandDaten.population()
1892×5 DataFrame
  Row │ Stichtag    Altersgruppe  Männlich  Weiblich  Insgesamt 
      │ Date        UnitRange…    Int64     Int64     Int64     
──────┼─────────────────────────────────────────────────────────
    1 │ 1999-12-31  0:1             396428    374795     771223
    2 │ 2000-12-31  0:1             392998    373556     766554
    3 │ 2001-12-31  0:1             378223    357532     735755
    4 │ 2002-12-31  0:1             369289    349961     719250
    5 │ 2003-12-31  0:1             362421    344028     706449
    6 │ 2004-12-31  0:1             361549    343439     704988
  ⋮   │     ⋮            ⋮           ⋮         ⋮          ⋮
 1887 │ 2015-12-31  85:199          668202   1536589    2204791
 1888 │ 2016-12-31  85:199          697500   1549439    2246939
 1889 │ 2017-12-31  85:199          718497   1546976    2265473
 1890 │ 2018-12-31  85:199          737893   1539616    2277509
 1891 │ 2019-12-31  85:199          793584   1593270    2386854
 1892 │ 2020-12-31  85:199          850877   1655055    2505932
                                               1880 rows omitted
```
…
